index,ncores,reps,elapsed
1,1,1,3.0980000000017753
2,1,2,3.166000000001077
3,1,3,3.414999999997235
4,1,4,3.150000000001455
5,1,5,3.150999999998021
6,1,6,3.2150000000001455
7,1,7,3.3100000000013097
8,1,8,3.385999999998603
9,1,9,3.117000000002008
10,1,10,3.361000000000786
11,2,1,1.694999999999709
12,2,2,1.6959999999999127
13,2,3,1.6970000000001164
14,2,4,1.6850000000013097
15,2,5,1.7109999999993306
16,2,6,1.7099999999991269
17,2,7,1.7109999999993306
18,2,8,1.772000000000844
19,2,9,1.6769999999996799
20,2,10,1.6539999999986321
21,3,1,1.2820000000028813
22,3,2,1.2200000000011642
23,3,3,1.2250000000021828
24,3,4,1.2250000000021828
25,3,5,1.4769999999989523
26,3,6,1.4710000000013679
27,3,7,1.4759999999987485
28,3,8,1.467000000000553
29,3,9,1.4680000000007567
30,3,10,1.484999999996944
31,4,1,1.3720000000030268
32,4,2,1.323999999996886
33,4,3,1.2780000000020664
34,4,4,1.3719999999993888
35,4,5,1.3120000000017171
36,4,6,1.3360000000029686
37,4,7,1.3029999999998836
38,4,8,1.3259999999972933
39,4,9,1.3029999999998836
40,4,10,1.287000000000262
41,5,1,1.4660000000003492
42,5,2,1.4309999999968568
43,5,3,1.4099999999998545
44,5,4,1.4399999999986903
45,5,5,1.3980000000010477
46,5,6,1.547999999998865
47,5,7,1.4390000000021246
48,5,8,1.4130000000004657
49,5,9,1.4359999999978754
50,5,10,1.4259999999994761
51,6,1,1.3120000000017171
52,6,2,1.3919999999998254
53,6,3,1.327000000001135
54,6,4,1.337999999999738
55,6,5,1.367999999998574
56,6,6,1.3290000000015425
57,6,7,1.3559999999997672
58,6,8,1.3120000000017171
59,6,9,1.3359999999993306
60,6,10,1.3510000000023865
61,7,1,1.3909999999996217
62,7,2,1.3879999999990105
63,7,3,1.3739999999997963
64,7,4,1.3559999999997672
65,7,5,1.342000000000553
66,7,6,1.3690000000024156
67,7,7,1.34599999999773
68,7,8,1.3339999999989232
69,7,9,1.3800000000010186
70,7,10,1.370999999999185
71,8,1,1.4170000000012806
72,8,2,1.3889999999992142
73,8,3,1.4510000000009313
74,8,4,1.348999999998341
75,8,5,1.349000000001979
76,8,6,1.3660000000018044
77,8,7,1.3430000000007567
78,8,8,1.3729999999995925
79,8,9,1.3839999999981956
80,8,10,1.342000000000553
