index,ncores,reps,elapsed
1,1,1,3.127999999998792
2,1,2,3.0540000000000873
3,1,3,2.9830000000001746
4,1,4,2.930000000000291
5,1,5,2.980999999999767
6,1,6,2.9979999999995925
7,1,7,3.09900000000016
8,1,8,3.0670000000009168
9,1,9,3.0049999999991996
10,1,10,2.996999999999389
11,1,11,3.111000000000786
12,1,12,2.8590000000003783
13,1,13,3.036000000000058
14,1,14,3.0270000000000437
15,1,15,3.006999999999607
16,1,16,2.9939999999987776
17,1,17,3.019000000000233
18,1,18,3.191000000000713
19,1,19,3.0169999999998254
20,1,20,2.595999999999549
21,1,21,2.912000000000262
22,1,22,2.8840000000000146
23,1,23,2.912000000000262
24,1,24,2.9060000000008586
25,1,25,2.877999999998792
26,1,26,2.9030000000002474
27,1,27,3.1370000000006257
28,1,28,2.664999999999054
29,1,29,2.8430000000007567
30,1,30,3.1929999999993015
31,1,31,3.144000000000233
32,1,32,3.033000000001266
33,1,33,2.9459999999999127
34,1,34,3.2079999999987194
35,1,35,2.964000000001761
36,1,36,3.311999999999898
37,1,37,3.028999999998632
38,1,38,3.087999999999738
39,1,39,3.147000000000844
40,1,40,2.878000000000611
41,1,41,3.1719999999986612
42,1,42,2.912000000000262
43,1,43,2.8690000000005966
44,1,44,3.155000000000655
45,1,45,2.848999999998341
46,1,46,2.88300000000163
47,1,47,2.984999999998763
48,1,48,3.004000000000815
49,1,49,3.0560000000004948
50,1,50,3.013999999999214
51,1,51,3.084000000000742
52,1,52,3.246999999999389
53,1,53,3.136000000000422
54,1,54,2.9470000000001164
55,1,55,3.0749999999989086
56,1,56,3.0900000000001455
57,1,57,2.985000000000582
58,1,58,3.002999999998792
59,1,59,2.9830000000001746
60,1,60,2.9790000000011787
61,1,61,2.9879999999993743
62,1,62,2.826999999999316
63,1,63,2.97400000000016
64,1,64,2.9459999999999127
65,1,65,2.9940000000005966
66,1,66,2.9680000000007567
67,1,67,3.208999999998923
68,1,68,2.9979999999995925
69,1,69,3.3170000000009168
70,1,70,2.782999999999447
71,1,71,2.952000000001135
72,1,72,2.933999999999287
73,1,73,2.9729999999999563
74,1,74,2.996000000001004
75,1,75,3.007999999999811
76,1,76,3.003999999998996
77,1,77,3.139999999999418
78,1,78,2.9200000000000728
79,1,79,2.9290000000000873
80,1,80,2.981000000001586
81,1,81,2.9719999999997526
82,1,82,2.9539999999997235
83,1,83,3.003999999998996
84,1,84,3.095000000001164
85,1,85,2.9759999999987485
86,1,86,2.970000000001164
87,1,87,2.8429999999989377
88,1,88,2.9760000000005675
89,1,89,2.94800000000032
90,1,90,3.139999999999418
91,1,91,3.1010000000005675
92,1,92,2.95299999999952
93,1,93,3.007999999999811
94,1,94,3.059000000001106
95,1,95,2.7739999999994325
96,1,96,2.9830000000001746
97,1,97,2.980999999999767
98,1,98,2.9549999999999272
99,1,99,2.9789999999993597
100,1,100,2.9549999999999272
101,2,1,1.610000000000582
102,2,2,1.6000000000003638
103,2,3,1.6409999999996217
104,2,4,1.6110000000007858
105,2,5,1.6170000000001892
106,2,6,1.6419999999998254
107,2,7,1.8319999999985157
108,2,8,1.820000000001528
109,2,9,1.8259999999991123
110,2,10,1.827000000001135
111,2,11,1.826999999999316
112,2,12,1.8279999999995198
113,2,13,1.8250000000007276
114,2,14,1.8220000000001164
115,2,15,1.8349999999991269
116,2,16,1.8080000000009022
117,2,17,1.8059999999986758
118,2,18,1.84900000000016
119,2,19,1.8990000000012515
120,2,20,1.8009999999994761
121,2,21,1.8299999999999272
122,2,22,1.8230000000003201
123,2,23,1.8079999999990832
124,2,24,1.8100000000013097
125,2,25,1.8319999999985157
126,2,26,1.827000000001135
127,2,27,1.8189999999995052
128,2,28,1.8400000000001455
129,2,29,1.8040000000000873
130,2,30,1.8439999999991414
131,2,31,1.8220000000001164
132,2,32,1.8330000000005384
133,2,33,1.8289999999997235
134,2,34,1.8510000000005675
135,2,35,1.8369999999995343
136,2,36,1.8559999999997672
137,2,37,1.8450000000011642
138,2,38,1.819999999999709
139,2,39,1.837999999999738
140,2,40,1.8690000000005966
141,2,41,1.8249999999989086
142,2,42,1.8119999999998981
143,2,43,1.8389999999999418
144,2,44,1.8220000000001164
145,2,45,1.9110000000000582
146,2,46,1.8369999999995343
147,2,47,1.860000000000582
148,2,48,1.819999999999709
149,2,49,1.8430000000007567
150,2,50,1.8329999999987194
151,2,51,1.8280000000013388
152,2,52,1.8339999999989232
153,2,53,1.8150000000005093
154,2,54,1.826999999999316
155,2,55,1.842000000000553
156,2,56,1.826999999999316
157,2,57,1.8360000000011496
158,2,58,1.8670000000001892
159,2,59,1.8649999999997817
160,2,60,1.8919999999998254
161,2,61,1.863999999999578
162,2,62,1.8350000000009459
163,2,63,1.8209999999999127
164,2,64,1.8659999999999854
165,2,65,1.7909999999992579
166,2,66,1.8150000000005093
167,2,67,1.7929999999996653
168,2,68,1.805000000000291
169,2,69,1.8330000000005384
170,2,70,1.8069999999988795
171,2,71,1.819999999999709
172,2,72,1.8080000000009022
173,2,73,1.8230000000003201
174,2,74,1.8179999999993015
175,2,75,1.8340000000007421
176,2,76,1.8179999999993015
177,2,77,1.805000000000291
178,2,78,1.8029999999998836
179,2,79,1.8040000000000873
180,2,80,1.7929999999996653
181,2,81,1.7990000000008877
182,2,82,1.7989999999990687
183,2,83,1.8220000000001164
184,2,84,1.8220000000001164
185,2,85,1.8850000000002183
186,2,86,1.8359999999993306
187,2,87,1.8320000000003347
188,2,88,1.8320000000003347
189,2,89,1.856999999999971
190,2,90,1.793999999999869
191,2,91,1.8140000000003056
192,2,92,1.8069999999988795
193,2,93,1.8060000000004948
194,2,94,1.7919999999994616
195,2,95,1.8110000000015134
196,2,96,1.8139999999984866
197,2,97,1.809000000001106
198,2,98,2.076999999999316
199,2,99,1.8430000000007567
200,2,100,1.8259999999991123
201,3,1,1.5270000000000437
202,3,2,1.4619999999995343
203,3,3,1.5600000000013097
204,3,4,1.5720000000001164
205,3,5,1.5379999999986467
206,3,6,1.5410000000010768
207,3,7,1.4809999999997672
208,3,8,1.4279999999998836
209,3,9,1.4099999999998545
210,3,10,1.4420000000009168
211,3,11,1.429999999998472
212,3,12,1.412000000000262
213,3,13,1.4989999999997963
214,3,14,1.4369999999998981
215,3,15,1.4680000000007567
216,3,16,1.566000000000713
217,3,17,1.5639999999984866
218,3,18,1.5940000000009604
219,3,19,1.639999999999418
220,3,20,1.4320000000006985
221,3,21,1.4979999999995925
222,3,22,1.511000000000422
223,3,23,1.4439999999995052
224,3,24,1.462999999999738
225,3,25,1.4480000000003201
226,3,26,1.4439999999995052
227,3,27,1.5030000000006112
228,3,28,1.4470000000001164
229,3,29,1.4390000000003056
230,3,30,1.430000000000291
231,3,31,1.4569999999985157
232,3,32,1.4320000000006985
233,3,33,1.4249999999992724
234,3,34,1.441000000000713
235,3,35,1.4220000000004802
236,3,36,1.422999999998865
237,3,37,1.4510000000009313
238,3,38,1.4769999999989523
239,3,39,1.4840000000003783
240,3,40,1.4920000000001892
241,3,41,1.5509999999994761
242,3,42,1.6240000000016153
243,3,43,1.6279999999987922
244,3,44,1.5750000000007276
245,3,45,1.5599999999994907
246,3,46,1.52599999999984
247,3,47,1.5509999999994761
248,3,48,1.5970000000015716
249,3,49,1.5159999999996217
250,3,50,1.4549999999999272
251,3,51,1.430000000000291
252,3,52,1.422999999998865
253,3,53,1.5529999999998836
254,3,54,1.4530000000013388
255,3,55,1.6719999999986612
256,3,56,1.5130000000008295
257,3,57,1.4499999999989086
258,3,58,1.529000000000451
259,3,59,1.4920000000001892
260,3,60,1.618000000000393
261,3,61,1.6239999999997963
262,3,62,1.4869999999991705
263,3,63,1.4660000000003492
264,3,64,1.4809999999997672
265,3,65,1.5210000000006403
266,3,66,1.506999999999607
267,3,67,1.5300000000006548
268,3,68,1.521999999999025
269,3,69,1.4880000000011933
270,3,70,1.4839999999985594
271,3,71,1.5820000000003347
272,3,72,1.4690000000009604
273,3,73,1.4570000000003347
274,3,74,1.5579999999990832
275,3,75,1.532999999999447
276,3,76,1.4870000000009895
277,3,77,1.537000000000262
278,3,78,1.4539999999997235
279,3,79,1.6119999999991705
280,3,80,1.59900000000016
281,3,81,1.481999999999971
282,3,82,1.5380000000004657
283,3,83,1.4650000000001455
284,3,84,1.4979999999995925
285,3,85,1.5079999999998108
286,3,86,1.5420000000012806
287,3,87,1.5419999999994616
288,3,88,1.4390000000003056
289,3,89,1.4169999999994616
290,3,90,1.4529999999995198
291,3,91,1.4240000000008877
292,3,92,1.466999999998734
293,3,93,1.4480000000003201
294,3,94,1.4500000000007276
295,3,95,1.4509999999991123
296,3,96,1.496000000001004
297,3,97,1.4399999999986903
298,3,98,1.4580000000005384
299,3,99,1.444999999999709
300,3,100,1.4390000000003056
301,4,1,1.2450000000008004
302,4,2,1.2909999999992579
303,4,3,1.261000000000422
304,4,4,1.264999999999418
305,4,5,1.298000000000684
306,4,6,1.2529999999987922
307,4,7,1.268000000000029
308,4,8,1.2690000000002328
309,4,9,1.2740000000012515
310,4,10,1.6329999999998108
311,4,11,1.22400000000016
312,4,12,1.2449999999989814
313,4,13,1.4600000000009459
314,4,14,1.2779999999984284
315,4,15,1.254000000000815
316,4,16,1.268000000000029
317,4,17,1.3029999999998836
318,4,18,1.256999999999607
319,4,19,1.2550000000010186
320,4,20,1.27599999999984
321,4,21,1.2659999999996217
322,4,22,1.2600000000002183
323,4,23,1.2629999999990105
324,4,24,1.246000000001004
325,4,25,1.2359999999989668
326,4,26,1.261000000000422
327,4,27,1.2620000000006257
328,4,28,1.253999999998996
329,4,29,1.2579999999998108
330,4,30,1.2560000000012224
331,4,31,1.2809999999990396
332,4,32,1.2640000000010332
333,4,33,1.264999999999418
334,4,34,1.268000000000029
335,4,35,1.256999999999607
336,4,36,1.3040000000000873
337,4,37,1.231999999999971
338,4,38,1.2489999999997963
339,4,39,1.2860000000000582
340,4,40,1.2950000000000728
341,4,41,1.293999999999869
342,4,42,1.246000000001004
343,4,43,1.2789999999986321
344,4,44,1.2579999999998108
345,4,45,1.3170000000009168
346,4,46,1.298000000000684
347,4,47,1.245999999999185
348,4,48,1.2659999999996217
349,4,49,1.298000000000684
350,4,50,1.2469999999993888
351,4,51,1.2450000000008004
352,4,52,1.2619999999988067
353,4,53,1.2880000000004657
354,4,54,1.2489999999997963
355,4,55,1.2919999999994616
356,4,56,1.2770000000000437
357,4,57,1.3360000000011496
358,4,58,1.2379999999993743
359,4,59,1.2489999999997963
360,4,60,1.4660000000003492
361,4,61,1.7370000000009895
362,4,62,1.5419999999994616
363,4,63,1.282999999999447
364,4,64,1.485000000000582
365,4,65,1.2289999999993597
366,4,66,1.3060000000004948
367,4,67,1.5889999999999418
368,4,68,1.2659999999996217
369,4,69,1.264999999999418
370,4,70,1.2480000000014115
371,4,71,1.3229999999985012
372,4,72,1.283000000001266
373,4,73,1.2619999999988067
374,4,74,1.239000000001397
375,4,75,1.8589999999985594
376,4,76,1.5910000000003492
377,4,77,1.603000000000975
378,4,78,1.5869999999995343
379,4,79,1.5779999999995198
380,4,80,1.5840000000007421
381,4,81,1.5929999999989377
382,4,82,1.5610000000015134
383,4,83,1.5949999999993452
384,4,84,1.6000000000003638
385,4,85,1.5529999999998836
386,4,86,1.5389999999988504
387,4,87,1.5520000000014988
388,4,88,1.6819999999988795
389,4,89,1.5750000000007276
390,4,90,1.5720000000001164
391,4,91,1.5979999999999563
392,4,92,1.5619999999998981
393,4,93,1.5969999999997526
394,4,94,1.581000000000131
395,4,95,1.5740000000005239
396,4,96,1.6049999999995634
397,4,97,1.5630000000001019
398,4,98,1.569999999999709
399,4,99,1.6880000000001019
400,4,100,1.5360000000000582
401,5,1,1.8940000000002328
402,5,2,1.6869999999998981
403,5,3,1.8850000000002183
404,5,4,1.6819999999988795
405,5,5,1.7780000000002474
406,5,6,1.7620000000006257
407,5,7,1.6829999999990832
408,5,8,1.728000000000975
409,5,9,1.742999999998574
410,5,10,1.717000000000553
411,5,11,1.7150000000001455
412,5,12,1.7109999999993306
413,5,13,1.7360000000007858
414,5,14,1.712999999999738
415,5,15,1.717000000000553
416,5,16,1.753999999998996
417,5,17,1.7260000000005675
418,5,18,1.831000000000131
419,5,19,1.8299999999999272
420,5,20,1.7800000000006548
421,5,21,1.5849999999991269
422,5,22,1.3800000000010186
423,5,23,1.3879999999990105
424,5,24,1.3980000000010477
425,5,25,1.411999999998443
426,5,26,1.4130000000004657
427,5,27,1.4060000000008586
428,5,28,1.393000000000029
429,5,29,1.4049999999988358
430,5,30,1.4220000000004802
431,5,31,1.404000000000451
432,5,32,1.3909999999996217
433,5,33,1.4400000000005093
434,5,34,1.4129999999986467
435,5,35,1.393000000000029
436,5,36,1.3870000000006257
437,5,37,1.4279999999998836
438,5,38,1.3950000000004366
439,5,39,1.4089999999996508
440,5,40,1.3960000000006403
441,5,41,1.4210000000002765
442,5,42,1.4749999999985448
443,5,43,1.408000000001266
444,5,44,1.4149999999990541
445,5,45,1.418999999999869
446,5,46,1.3690000000005966
447,5,47,1.3770000000004075
448,5,48,1.367999999998574
449,5,49,1.3940000000002328
450,5,50,1.3919999999998254
451,5,51,1.390000000001237
452,5,52,1.4089999999996508
453,5,53,1.418999999999869
454,5,54,1.4609999999993306
455,5,55,1.4000000000014552
456,5,56,1.429999999998472
457,5,57,1.4250000000010914
458,5,58,1.3719999999993888
459,5,59,1.3999999999996362
460,5,60,1.3829999999998108
461,5,61,1.3810000000012224
462,5,62,1.4799999999995634
463,5,63,1.5969999999997526
464,5,64,1.59900000000016
465,5,65,1.7189999999991414
466,5,66,1.6010000000005675
467,5,67,1.5850000000009459
468,5,68,1.5929999999989377
469,5,69,1.75
470,5,70,1.6370000000006257
471,5,71,1.4909999999999854
472,5,72,1.488999999999578
473,5,73,1.4609999999993306
474,5,74,1.5840000000007421
475,5,75,1.4099999999998545
476,5,76,1.3840000000000146
477,5,77,1.4860000000007858
478,5,78,1.4539999999997235
479,5,79,1.396999999999025
480,5,80,1.4030000000002474
481,5,81,1.3729999999995925
482,5,82,1.4140000000006694
483,5,83,1.371000000001004
484,5,84,1.5889999999999418
485,5,85,1.753999999998996
486,5,86,1.8580000000001746
487,5,87,1.7639999999992142
488,5,88,1.7550000000010186
489,5,89,1.7600000000002183
490,5,90,1.8230000000003201
491,5,91,1.8429999999989377
492,5,92,1.4349999999994907
493,5,93,1.3950000000004366
494,5,94,1.47400000000016
495,5,95,1.3559999999997672
496,5,96,1.5050000000010186
497,5,97,1.385999999998603
498,5,98,1.3630000000011933
499,5,99,1.4359999999996944
500,5,100,1.3809999999994034
501,6,1,1.4020000000000437
502,6,2,1.4259999999994761
503,6,3,1.3150000000005093
504,6,4,1.353000000000975
505,6,5,1.4749999999985448
506,6,6,1.3919999999998254
507,6,7,1.360000000000582
508,6,8,1.345999999999549
509,6,9,1.382000000001426
510,6,10,1.396999999999025
511,6,11,1.518000000000029
512,6,12,1.423000000000684
513,6,13,1.4069999999992433
514,6,14,1.3720000000012078
515,6,15,1.4769999999989523
516,6,16,1.5650000000005093
517,6,17,1.4809999999997672
518,6,18,1.6149999999997817
519,6,19,1.5139999999992142
520,6,20,1.4350000000013097
521,6,21,1.493000000000393
522,6,22,1.370999999999185
523,6,23,1.3919999999998254
524,6,24,1.3729999999995925
525,6,25,1.5360000000000582
526,6,26,1.4070000000010623
527,6,27,1.4149999999990541
528,6,28,1.3770000000004075
529,6,29,1.444999999999709
530,6,30,1.4250000000010914
531,6,31,1.3239999999987049
532,6,32,1.3240000000005239
533,6,33,1.3770000000004075
534,6,34,1.3109999999996944
535,6,35,1.4689999999991414
536,6,36,1.6710000000002765
537,6,37,1.5200000000004366
538,6,38,1.5450000000000728
539,6,39,1.4169999999994616
540,6,40,1.3340000000007421
541,6,41,1.3189999999995052
542,6,42,1.381999999999607
543,6,43,1.3220000000001164
544,6,44,1.4920000000001892
545,6,45,1.4750000000003638
546,6,46,1.481999999999971
547,6,47,1.537000000000262
548,6,48,1.5509999999994761
549,6,49,1.3620000000009895
550,6,50,1.4439999999995052
551,6,51,1.4310000000004948
552,6,52,1.385999999998603
553,6,53,1.3910000000014406
554,6,54,1.466999999998734
555,6,55,1.3690000000005966
556,6,56,1.319999999999709
557,6,57,1.342000000000553
558,6,58,1.3389999999999418
559,6,59,1.4509999999991123
560,6,60,1.489000000001397
561,6,61,1.4789999999993597
562,6,62,1.3629999999993743
563,6,63,1.4700000000011642
564,6,64,1.6449999999986176
565,6,65,1.603000000000975
566,6,66,1.488999999999578
567,6,67,1.4359999999996944
568,6,68,1.4510000000009313
569,6,69,1.352999999999156
570,6,70,1.3690000000005966
571,6,71,1.493000000000393
572,6,72,1.4759999999987485
573,6,73,1.4400000000005093
574,6,74,1.5090000000000146
575,6,75,1.404000000000451
576,6,76,1.477999999999156
577,6,77,1.7919999999994616
578,6,78,1.6240000000016153
579,6,79,1.4789999999993597
580,6,80,1.4609999999993306
581,6,81,1.327000000001135
582,6,82,1.4020000000000437
583,6,83,1.4159999999992579
584,6,84,1.3889999999992142
585,6,85,1.5490000000008877
586,6,86,1.3649999999997817
587,6,87,1.4030000000002474
588,6,88,1.6460000000006403
589,6,89,1.4909999999999854
590,6,90,1.4899999999997817
591,6,91,1.3779999999987922
592,6,92,1.3460000000013679
593,6,93,1.341999999998734
594,6,94,1.3700000000008004
595,6,95,1.407999999999447
596,6,96,1.3780000000006112
597,6,97,1.3670000000001892
598,6,98,1.407999999999447
599,6,99,1.3700000000008004
600,6,100,1.3809999999994034
601,7,1,1.4809999999997672
602,7,2,1.576999999999316
603,7,3,1.3910000000014406
604,7,4,1.5979999999999563
605,7,5,1.3999999999996362
606,7,6,1.467000000000553
607,7,7,1.4139999999988504
608,7,8,1.3760000000002037
609,7,9,1.4600000000009459
610,7,10,1.7309999999997672
611,7,11,1.6999999999989086
612,7,12,1.6550000000006548
613,7,13,1.3539999999993597
614,7,14,1.4980000000014115
615,7,15,1.4099999999998545
616,7,16,1.4319999999988795
617,7,17,1.3999999999996362
618,7,18,1.4880000000011933
619,7,19,1.5029999999987922
620,7,20,1.3630000000011933
621,7,21,1.3739999999997963
622,7,22,1.3729999999995925
623,7,23,1.3700000000008004
624,7,24,1.375
625,7,25,1.477999999999156
626,7,26,1.5300000000006548
627,7,27,1.6589999999996508
628,7,28,1.6479999999992287
629,7,29,1.6220000000012078
630,7,30,1.646999999999025
631,7,31,1.5460000000002765
632,7,32,1.3780000000006112
633,7,33,1.3769999999985885
634,7,34,1.3360000000011496
635,7,35,1.3549999999995634
636,7,36,1.462999999999738
637,7,37,1.4590000000007421
638,7,38,1.3940000000002328
639,7,39,1.4839999999985594
640,7,40,1.5250000000014552
641,7,41,1.7579999999998108
642,7,42,1.7259999999987485
643,7,43,1.4970000000012078
644,7,44,1.3349999999991269
645,7,45,1.3580000000001746
646,7,46,1.4420000000009168
647,7,47,1.5360000000000582
648,7,48,1.4769999999989523
649,7,49,1.4279999999998836
650,7,50,1.5760000000009313
651,7,51,1.411999999998443
652,7,52,1.379000000000815
653,7,53,1.386000000000422
654,7,54,1.4059999999990396
655,7,55,1.4440000000013242
656,7,56,1.5119999999988067
657,7,57,1.4530000000013388
658,7,58,1.422999999998865
659,7,59,1.375
660,7,60,1.3909999999996217
661,7,61,1.3980000000010477
662,7,62,1.4439999999995052
663,7,63,1.5689999999995052
664,7,64,1.382000000001426
665,7,65,1.3759999999983847
666,7,66,1.3800000000010186
667,7,67,1.3850000000002183
668,7,68,1.3909999999996217
669,7,69,1.4249999999992724
670,7,70,1.4130000000004657
671,7,71,1.3670000000001892
672,7,72,1.3829999999998108
673,7,73,1.3890000000010332
674,7,74,1.3989999999994325
675,7,75,1.440999999998894
676,7,76,1.3100000000013097
677,7,77,1.3479999999999563
678,7,78,1.3449999999993452
679,7,79,1.3719999999993888
680,7,80,1.4250000000010914
681,7,81,1.5460000000002765
682,7,82,1.3479999999999563
683,7,83,1.3909999999996217
684,7,84,1.3539999999993597
685,7,85,1.364000000001397
686,7,86,1.3989999999994325
687,7,87,1.4499999999989086
688,7,88,1.5350000000016735
689,7,89,1.65099999999984
690,7,90,1.5489999999990687
691,7,91,1.595999999999549
692,7,92,1.6670000000012806
693,7,93,1.532999999999447
694,7,94,1.423000000000684
695,7,95,1.389999999999418
696,7,96,1.4490000000005239
697,7,97,1.4569999999985157
698,7,98,1.368000000000393
699,7,99,1.4030000000002474
700,7,100,1.3539999999993597
701,8,1,1.371000000001004
702,8,2,1.5409999999992579
703,8,3,1.470999999999549
704,8,4,1.529000000000451
705,8,5,1.3980000000010477
706,8,6,1.3889999999992142
707,8,7,1.3780000000006112
708,8,8,1.4570000000003347
709,8,9,1.4859999999989668
710,8,10,1.5940000000009604
711,8,11,1.4389999999984866
712,8,12,1.4790000000011787
713,8,13,1.3809999999994034
714,8,14,1.404000000000451
715,8,15,1.3739999999997963
716,8,16,1.5830000000005384
717,8,17,1.3989999999994325
718,8,18,1.5129999999990105
719,8,19,1.4270000000014988
720,8,20,1.4839999999985594
721,8,21,1.3890000000010332
722,8,22,1.6749999999992724
723,8,23,1.728000000000975
724,8,24,1.6880000000001019
725,8,25,1.4729999999999563
726,8,26,1.5519999999996799
727,8,27,1.5300000000006548
728,8,28,1.4549999999999272
729,8,29,1.4579999999987194
730,8,30,1.4989999999997963
731,8,31,1.445000000001528
732,8,32,1.4069999999992433
733,8,33,1.3919999999998254
734,8,34,1.4909999999999854
735,8,35,1.4770000000007713
736,8,36,1.3959999999988213
737,8,37,1.4690000000009604
738,8,38,1.4859999999989668
739,8,39,1.430000000000291
740,8,40,1.3840000000000146
741,8,41,1.4609999999993306
742,8,42,1.3910000000014406
743,8,43,1.396999999999025
744,8,44,1.3940000000002328
745,8,45,1.3739999999997963
746,8,46,1.4160000000010768
747,8,47,1.3909999999996217
748,8,48,1.3829999999998108
749,8,49,1.4059999999990396
750,8,50,1.47400000000016
751,8,51,1.379000000000815
752,8,52,1.5470000000004802
753,8,53,1.7789999999986321
754,8,54,1.7120000000013533
755,8,55,1.5010000000002037
756,8,56,1.6369999999988067
757,8,57,1.6190000000005966
758,8,58,1.6880000000001019
759,8,59,1.7289999999993597
760,8,60,1.691000000000713
761,8,61,1.462999999999738
762,8,62,1.3989999999994325
763,8,63,1.412000000000262
764,8,64,1.6119999999991705
765,8,65,1.7450000000008004
766,8,66,1.662000000000262
767,8,67,1.643000000000029
768,8,68,1.4529999999995198
769,8,69,1.4140000000006694
770,8,70,1.4869999999991705
771,8,71,1.4950000000008004
772,8,72,1.6189999999987776
773,8,73,1.6760000000012951
774,8,74,1.7600000000002183
775,8,75,1.506999999999607
776,8,76,1.4439999999995052
777,8,77,1.4400000000005093
778,8,78,1.5389999999988504
779,8,79,1.746000000001004
780,8,80,1.6639999999988504
781,8,81,1.6410000000014406
782,8,82,1.4589999999989232
783,8,83,1.3700000000008004
784,8,84,1.404000000000451
785,8,85,1.4609999999993306
786,8,86,1.3770000000004075
787,8,87,1.4650000000001455
788,8,88,1.407999999999447
789,8,89,1.3770000000004075
790,8,90,1.3469999999997526
791,8,91,1.47400000000016
792,8,92,1.3549999999995634
793,8,93,1.4089999999996508
794,8,94,1.4140000000006694
795,8,95,1.4319999999988795
796,8,96,1.3469999999997526
797,8,97,1.3810000000012224
798,8,98,1.4239999999990687
799,8,99,1.3780000000006112
800,8,100,1.397000000000844
